…
``` r
# query the API for packages
checks  <- cch_pkgs(c("spotifyr", "genius"))

# tidy up the checks
clean_checks <- tidy_checks(checks)

# get check results
clean_checks %>% 
  unnest(check_results)
```

    ## # A tibble: 26 x 9
    ##    pkg   flavor version tinstall tcheck ttotal status check_url
    ##    <chr> <chr>  <chr>      <dbl>  <dbl>  <dbl> <chr>  <chr>    
    ##  1 spot… r-dev… 2.1.1      12.3    86.2   98.4 OK     https://…
    ##  2 spot… r-dev… 2.1.1       9.76   64.8   74.6 OK     https://…
    ##  3 spot… r-dev… 2.1.1       0       0    116.  OK     https://…
    ##  4 spot… r-dev… 2.1.1       0       0    112.  OK     https://…
    ##  5 spot… r-dev… 2.1.1      31     102    133   OK     https://…
    ##  6 spot… r-dev… 2.1.1      33      96    129   OK     https://…
    ##  7 spot… r-pat… 2.1.1       9.42   74.4   83.8 OK     https://…
    ##  8 spot… r-pat… 2.1.1       0       0    162.  OK     https://…
    ##  9 spot… r-rel… 2.1.1      10.8    75.8   86.6 OK     https://…
    ## 10 spot… r-rel… 2.1.1      33     120    153   OK     https://…
    ## # … with 16 more rows, and 1 more variable: check_details <list>
…
